…
# Using a data frame
multiple(
  data = sarscov2,
  case_timeseries = 'cases',
  time = 'date',
  component_pathogen_timeseries = c('alpha', 'delta', 'omicron', 'other')
)
#> $pathogen_structure
#> [1] "multiple"
#> 
#> $pathogen_names
#> [1] "alpha"   "delta"   "omicron" "other"  
#> 
#> $validated_tsbl
#> # A tsibble: 830 x 6 [1D]
#>    date       case_timeseries alpha delta omicron other
#>    <date>               <dbl> <int> <int>   <int> <int>
#>  1 2020-09-23            7096     0     0       0    10
#>  2 2020-09-24            7682     0     0       0     7
#>  3 2020-09-25            7318     0     0       0     9
#>  4 2020-09-26            6810     0     0       0    15
#>  5 2020-09-27            7023     0     0       0     5
#>  6 2020-09-28            9983     0     0       0     6
#>  7 2020-09-29           10366     0     0       0    23
#>  8 2020-09-30           12717     0     0       0    54
#>  9 2020-10-01           13357     0     0       0    32
#> 10 2020-10-02           13854     0     0       0    15
#> # ℹ 820 more rows
…
