Single pathogen structure — single • EpiStrainDynamics
…
# Using a data frame
single(
  data = sarscov2,
  case_timeseries = 'cases',
  time = 'date'
)
#> $pathogen_structure
#> [1] "single"
#> 
#> $pathogen_names
#> [1] "cases"
#> 
#> $validated_tsbl
#> # A tsibble: 830 x 2 [1D]
#>    date       case_timeseries
#>    <date>               <dbl>
#>  1 2020-09-23            7096
#>  2 2020-09-24            7682
#>  3 2020-09-25            7318
#>  4 2020-09-26            6810
#>  5 2020-09-27            7023
#>  6 2020-09-28            9983
#>  7 2020-09-29           10366
#>  8 2020-09-30           12717
#>  9 2020-10-01           13357
#> 10 2020-10-02           13854
#> # ℹ 820 more rows
…
